%YAML 1.1
%TAG !u! tag:unity3d.com,2011:
--- !u!162 &1
EditorUserSettings:
  m_ObjectHideFlags: 0
  serializedVersion: 4
  m_ConfigSettings:
    RecentlyUsedScenePath-0:
      value: 22424703114646680e0b0227036c6c111b07142f1f2b233e2867083debf42d
      flags: 0
    RecentlyUsedScenePath-1:
      value: 200b1b36175a035e0e1a1f6d252d56040f582c253920292507281065adc73d2cadd339fcef352a16380fb973252d123ae6194638f50e040e0241ce0d14f1155343e156d014c10b05
      flags: 0
    RecentlyUsedScenePath-2:
      value: 22424703114646680e0b0227036c6c1313191d6a7e0c68252320092a
      flags: 0
    RecentlyUsedScenePath-3:
      value: 22424703114646680e0b0227036c7b11181a1921391c2323391a1e36ece57a2decee22f0
      flags: 0
    RecentlyUsedScenePath-4:
      value: 224247031146466908000d2b03305e1e15123b25282d3423121c133af6f9073bf0ee26fdee3438713403fc28012c4e0afc031d12c5081802011af40016b0310002c00cd655fc0a08c40b15cfc10e9ecec0c5dde9ebf2e9dbe8d6b3e7f5fce7e2f0e3eaefafbbe892e4baf0b8bbdb
      flags: 0
    RecentlyUsedScenePath-5:
      value: 224247031146466908000d2b03305e1e15123b25282d3423121c133af6f9073bf0ee26fdee3438713403fc28012c4e0afc031d12c5081802011af40016b0310002c00cd655fc0a08c40b15cfc10e9ecec0c5dde9ebf2e9dbe8d6b3e7f5fce7e2f0e3eaefafbbe88ebfa1f7a5b6
      flags: 0
    RecentlyUsedScenePath-6:
      value: 22424703114646680e0b0227036c72151802563f22213229
      flags: 0
    RecentlyUsedScenePath-7:
      value: 22424703114646680e0b0227036c6c1313191d6a7e0c667d6d0f301cc6ae2136ebf32f
      flags: 0
    lightmappingDeviceAndPlatform:
      value: 53
      flags: 0
    vcSharedLogLevel:
      value: 0d5e400f0650
      flags: 0
  m_VCAutomaticAdd: 1
  m_VCDebugCom: 0
  m_VCDebugCmd: 0
  m_VCDebugOut: 0
  m_SemanticMergeMode: 2
  m_VCShowFailedCheckout: 1
  m_VCOverwriteFailedCheckoutAssets: 1
  m_VCProjectOverlayIcons: 1
  m_VCHierarchyOverlayIcons: 1
  m_VCOtherOverlayIcons: 1
  m_VCAllowAsyncUpdate: 0
