%YAML 1.1
%TAG !u! tag:unity3d.com,2011:
--- !u!114 &1504714514
MonoBehaviour:
  m_ObjectHideFlags: 0
  m_CorrespondingSourceObject: {fileID: 0}
  m_PrefabInstance: {fileID: 0}
  m_PrefabAsset: {fileID: 0}
  m_GameObject: {fileID: 4362973468073322828}
  m_Enabled: 1
  m_EditorHideFlags: 0
  m_Script: {fileID: 11500000, guid: 31d4461902e7eb64aa39a8fdd22827ec, type: 3}
  m_Name: 
  m_EditorClassIdentifier: 
  _band: 0
  _startScale: 1
  _scaleMultipler: 10
--- !u!1001 &6794271575053760187
PrefabInstance:
  m_ObjectHideFlags: 0
  serializedVersion: 2
  m_Modification:
    m_TransformParent: {fileID: 0}
    m_Modifications:
    - target: {fileID: 7117513421597843447, guid: 72f1e3f45041e59419d5d9b1a6b4e86b, type: 3}
      propertyPath: m_Name
      value: Frequency Meter
      objectReference: {fileID: 0}
    - target: {fileID: 7117513421597843448, guid: 72f1e3f45041e59419d5d9b1a6b4e86b, type: 3}
      propertyPath: m_Materials.Array.data[0]
      value: 
      objectReference: {fileID: 2100000, guid: 4abc680c6b49a0b4ba6598060d384eab, type: 2}
    - target: {fileID: 7117513421597843450, guid: 72f1e3f45041e59419d5d9b1a6b4e86b, type: 3}
      propertyPath: m_RootOrder
      value: 0
      objectReference: {fileID: 0}
    - target: {fileID: 7117513421597843450, guid: 72f1e3f45041e59419d5d9b1a6b4e86b, type: 3}
      propertyPath: m_LocalPosition.x
      value: 0
      objectReference: {fileID: 0}
    - target: {fileID: 7117513421597843450, guid: 72f1e3f45041e59419d5d9b1a6b4e86b, type: 3}
      propertyPath: m_LocalPosition.y
      value: -35.338295
      objectReference: {fileID: 0}
    - target: {fileID: 7117513421597843450, guid: 72f1e3f45041e59419d5d9b1a6b4e86b, type: 3}
      propertyPath: m_LocalPosition.z
      value: 0
      objectReference: {fileID: 0}
    - target: {fileID: 7117513421597843450, guid: 72f1e3f45041e59419d5d9b1a6b4e86b, type: 3}
      propertyPath: m_LocalRotation.w
      value: 1
      objectReference: {fileID: 0}
    - target: {fileID: 7117513421597843450, guid: 72f1e3f45041e59419d5d9b1a6b4e86b, type: 3}
      propertyPath: m_LocalRotation.x
      value: -0
      objectReference: {fileID: 0}
    - target: {fileID: 7117513421597843450, guid: 72f1e3f45041e59419d5d9b1a6b4e86b, type: 3}
      propertyPath: m_LocalRotation.y
      value: -0
      objectReference: {fileID: 0}
    - target: {fileID: 7117513421597843450, guid: 72f1e3f45041e59419d5d9b1a6b4e86b, type: 3}
      propertyPath: m_LocalRotation.z
      value: -0
      objectReference: {fileID: 0}
    - target: {fileID: 7117513421597843450, guid: 72f1e3f45041e59419d5d9b1a6b4e86b, type: 3}
      propertyPath: m_LocalEulerAnglesHint.x
      value: 0
      objectReference: {fileID: 0}
    - target: {fileID: 7117513421597843450, guid: 72f1e3f45041e59419d5d9b1a6b4e86b, type: 3}
      propertyPath: m_LocalEulerAnglesHint.y
      value: 0
      objectReference: {fileID: 0}
    - target: {fileID: 7117513421597843450, guid: 72f1e3f45041e59419d5d9b1a6b4e86b, type: 3}
      propertyPath: m_LocalEulerAnglesHint.z
      value: 0
      objectReference: {fileID: 0}
    m_RemovedComponents:
    - {fileID: 7117513421597843449, guid: 72f1e3f45041e59419d5d9b1a6b4e86b, type: 3}
  m_SourcePrefab: {fileID: 100100000, guid: 72f1e3f45041e59419d5d9b1a6b4e86b, type: 3}
--- !u!1 &4362973468073322828 stripped
GameObject:
  m_CorrespondingSourceObject: {fileID: 7117513421597843447, guid: 72f1e3f45041e59419d5d9b1a6b4e86b, type: 3}
  m_PrefabInstance: {fileID: 6794271575053760187}
  m_PrefabAsset: {fileID: 0}
